Statistical Learning
…
library(dplyr)

data_cl %>%
  group_by(Churn)%>%
  mutate(
    Q1= quantile(tenure, 0.25),
    Q3= quantile(tenure, 0.75),
    rozstep= Q3-Q1,
    margin1 = Q1- 1.5*rozstep,
    margin2 = Q3 + 1.5*rozstep,
    outlier= tenure< margin1 | tenure > margin2
  )%>%
  filter(outlier)

## # A tibble: 23 × 27
## # Groups:   Churn [1]
##    customerID gender SeniorCitizen Partner Dependents tenure PhoneService
##    <fct>      <fct>          <int> <fct>   <fct>       <int> <fct>       
##  1 4853-RULSV Male               0 No      No             70 Yes         
##  2 2834-JRTUA Male               0 No      No             71 Yes         
##  3 0201-OAMXR Female             0 No      No             70 Yes         
##  4 4550-VBOFE Male               1 Yes     No             70 Yes         
##  5 7317-GGVPB Male               0 Yes     No             71 Yes         
##  6 8809-RIHDD Male               0 Yes     Yes            72 Yes         
##  7 0917-EZOLA Male               1 Yes     No             72 Yes         
##  8 0748-RDGGM Male               0 Yes     No             70 Yes         
##  9 3886-CERTZ Female             0 Yes     No             72 Yes         
## 10 6559-ILWKJ Male               0 Yes     No             71 No          
## # ℹ 13 more rows
## # ℹ 20 more variables: MultipleLines <fct>, InternetService <fct>,
## #   OnlineSecurity <fct>, OnlineBackup <fct>, DeviceProtection <fct>,
## #   TechSupport <fct>, StreamingTV <fct>, StreamingMovies <fct>,
## #   Contract <fct>, PaperlessBilling <fct>, PaymentMethod <fct>,
## #   MonthlyCharges <dbl>, TotalCharges <dbl>, Churn <fct>, Q1 <dbl>, Q3 <dbl>,
## #   rozstep <dbl>, margin1 <dbl>, margin2 <dbl>, outlier <lgl>
…
